Place,Name,State,WeightClassKg,BodyweightKg,BirthDate,Age,Squat1Kg,Squat2Kg,Squat3Kg,Best3SquatKg,Bench1Kg,Bench2Kg,Bench3Kg,Best3BenchKg,Deadlift1Kg,Deadlift2Kg,Deadlift3Kg,Best3DeadliftKg,TotalKg,Squat4Kg,Bench4Kg,Deadlift4Kg,Event,Equipment,Sex,Division,Tested
1,Gracie Eason,AL,60,60,,14,25,-30,-35,25,20,27.5,-30,27.5,62.5,65,67.5,67.5,120,,,,SBD,Raw,F,Juniors 13-15,Yes
1,Michelle Silva,AL,56,54.6,,45,62.5,-65,-65,62.5,42.5,47.5,-50,47.5,90,92.5,95,95,205,,,,SBD,Raw,F,Open,Yes
DQ,Gabrielle St Julien,LA,60,59.2,,26,82.5,-87.5,87.5,87.5,50,55,57.5,57.5,-100,-100,-100,,,,,,SBD,Raw,F,Open,Yes
1,Dreannan McConnell,MS,75,75,,25,125,130,-140,130,52.5,-55,-57.5,52.5,140,-152.5,-155,140,322.5,,,,SBD,Raw,F,Open,Yes
1,April Goff,MS,110+,136.8,,42,150,165,-170,165,82.5,87.5,-90,87.5,167.5,175,182.5,182.5,435,,,185,SBD,Raw,F,Open,Yes
1,Shelby Moore,MS,75,72.7,,37,92.5,-102.5,-107.5,92.5,55,60,-65,60,125,142.5,-145,142.5,295,,,,SBD,Raw,F,Submasters 35-39,Yes
1,Amanda Mothe,LA,100,96,,35,60,62.5,72.5,72.5,52.5,60,-65,60,100,107.5,112.5,112.5,245,,,,SBD,Raw,F,Submasters 35-39,Yes
1,Michelle Silva,AL,56,54.6,,45,62.5,-65,-65,62.5,42.5,47.5,-50,47.5,90,92.5,95,95,205,,,,SBD,Raw,F,Masters 45-49,Yes
1,April Goff,MS,110+,136.8,,42,150,165,-170,165,82.5,87.5,-90,87.5,167.5,175,182.5,182.5,435,,,185,SBD,Raw,F,Masters 40-44,Yes
1,Johnathan Wartt,LA,67.5,67.1,,17,150,-160,160,160,85,90,-95,90,195,207.5,-217.5,207.5,457.5,,,,SBD,Raw,M,Juniors 16-17,Yes
2,Dylan Adams,LA,67.5,65.5,,17,122.5,127.5,-137.5,127.5,75,77.5,-82.5,77.5,142.5,147.5,-155,147.5,352.5,,,,SBD,Raw,M,Juniors 16-17,Yes
3,Lee Williams,LA,67.5,60.7,,16,-102.5,107.5,120,120,70,75,82.5,82.5,-132.5,145,-155,145,347.5,,,,SBD,Raw,M,Juniors 16-17,Yes
1,Kyle Buckley,AL,75,73.1,,21,190,205,220,220,-115,115,120,120,205,217.5,230,230,570,,,,SBD,Raw,M,Juniors 20-23,Yes
2,Shiv Patel,LA,75,74.7,,23,157.5,165,175,175,95,-102.5,,95,215,-230,-230,215,485,,,,SBD,Raw,M,Juniors 20-23,Yes
1,Jacob Boyd,LA,82.5,76.2,,14,142.5,152.5,155,155,85,87.5,-92.5,87.5,205,222.5,-240,222.5,465,,,,SBD,Raw,M,Juniors 13-15,Yes
1,Corgan Edler,LA,82.5,76,,17,165,167.5,172.5,172.5,122.5,127.5,-130,127.5,182.5,190,200,200,500,,,,SBD,Raw,M,Juniors 16-17,Yes
1,Kade Patterson,MS,82.5,82.1,,22,185,190,192.5,192.5,-132.5,132.5,-137.5,132.5,230,-232.5,,230,555,,,,SBD,Raw,M,Juniors 20-23,Yes
2,Griffin Ervin,MS,82.5,80.2,,21,137.5,140,145,145,82.5,85,87.5,87.5,135,142.5,150,150,382.5,,,,SBD,Raw,M,Juniors 20-23,Yes
1,Cameron Cagle,MS,90,86.3,,19,185,192.5,197.5,197.5,115,130,-142.5,130,200,225,230,230,557.5,,,235,SBD,Raw,M,Juniors 18-19,Yes
1,Tristan Hesler,MS,90,88.5,,22,180,190,195,195,122.5,-125,125,125,245,250,257.5,257.5,577.5,,,260,SBD,Raw,M,Juniors 20-23,Yes
1,Paul Baxter,LA,125,119.3,,22,215,222.5,232.5,232.5,130,137.5,142.5,142.5,225,232.5,240,240,615,235,145,242.5,SBD,Raw,M,Juniors 20-23,Yes
1,Anthony Bui #1,LA,60,59.9,,30,150,162.5,-167.5,162.5,100,-110,-112.5,100,207.5,-225,-225,207.5,470,,,,SBD,Raw,M,Open,Yes
1,Miguel Larrea,LA,67.5,67.4,,35,150,155,160,160,115,122.5,130,130,150,165,170,170,460,,,,SBD,Raw,M,Open,Yes
1,Josh Serean,LA,82.5,81.9,,33,222.5,235,245,245,142.5,150,160,160,260,-280,,260,665,,,,SBD,Raw,M,Open,Yes
2,John Davis #2,MS,82.5,81.8,,26,190,200,210,210,130,135,-140,135,220,232.5,-240,232.5,577.5,,,,SBD,Raw,M,Open,Yes
3,Kade Patterson,MS,82.5,82.1,,22,185,190,192.5,192.5,-132.5,132.5,-137.5,132.5,230,-232.5,,230,555,,,,SBD,Raw,M,Open,Yes
4,Caleb Thomas,MS,82.5,82.4,,28,155,170,182.5,182.5,105,-115,-115,105,195,210,227.5,227.5,515,,,,SBD,Raw,M,Open,Yes
5,Michael Palmer,AL,82.5,82.1,,48,180,182.5,-205,182.5,100,110,112.5,112.5,197.5,210,-230,210,505,,,,SBD,Raw,M,Open,Yes
6,Matthew Callen,AL,82.5,79.9,,18,160,170,-175,170,115,120,125,125,182.5,195,200,200,495,,,,SBD,Raw,M,Open,Yes
1,Carlos Courtney,LA,90,89.9,,30,207.5,227.5,,227.5,152.5,160,,160,235,255,-267.5,255,642.5,,,,SBD,Raw,M,Open,Yes
1,Eric Lease,MS,100,98.9,,37,207.5,227.5,-242.5,227.5,130,137.5,142.5,142.5,235,252.5,-255,252.5,622.5,,,,SBD,Raw,M,Open,Yes
2,Miguel Lau,LA,100,97.3,,25,187.5,200,215,215,122.5,132.5,135,135,202.5,215,232.5,232.5,582.5,,,,SBD,Raw,M,Open,Yes
3,Mark Retanan,LA,100,98.7,,29,180,192.5,200,200,132.5,-140,-140,132.5,230,242.5,250,250,582.5,,,,SBD,Raw,M,Open,Yes
4,Marcus Wilson,AL,100,97.9,,31,185,-192.5,-192.5,185,150,-155,-155,150,220,-227.5,-227.5,220,555,,,,SBD,Raw,M,Open,Yes
5,Everett Simmons,TN,100,90.7,,28,172.5,182.5,-192.5,182.5,137.5,140,-142.5,140,215,230,-257.5,230,552.5,,,,SBD,Raw,M,Open,Yes
1,Mason Ducote,LA,110,110,,26,275,290,300,300,185,197.5,-205,197.5,305,-322.5,,305,802.5,,,,SBD,Raw,M,Open,Yes
2,Eric Chatman,MS,110,107.5,,27,237.5,247.5,260,260,175,-182.5,-182.5,175,315,-337.5,-337.5,315,750,,,,SBD,Raw,M,Open,Yes
1,Jacob Hamm,MS,125,116,,24,227.5,237.5,247.5,247.5,175,180,-182.5,180,247.5,-260,-260,247.5,675,,,,SBD,Raw,M,Open,Yes
2,Trey Smith,MS,125,117.4,,27,200,215,-230,215,150,155,160,160,240,-260,-260,240,615,,,,SBD,Raw,M,Open,Yes
3,Paul Baxter,LA,125,119.3,,22,215,222.5,232.5,232.5,130,137.5,142.5,142.5,225,232.5,240,240,615,235,145,242.5,SBD,Raw,M,Open,Yes
1,Miguel Larrea,LA,67.5,67.4,,35,150,155,160,160,115,122.5,130,130,150,165,170,170,460,,,,SBD,Raw,M,Submasters 35-39,Yes
1,Paul Washington,MS,100,99.1,,39,192.5,205,-210,205,-142.5,142.5,,142.5,227.5,230,232.5,232.5,580,,,237.5,SBD,Raw,M,Submasters 35-39,Yes
1,Michael Palmer,AL,82.5,82.1,,48,180,182.5,-205,182.5,100,110,112.5,112.5,197.5,210,-230,210,505,,,,SBD,Raw,M,Masters 45-49,Yes
1,Eddie Griffin,LA,82.5,81.6,,52,137.5,140,147.5,147.5,102.5,-105,-105,102.5,180,182.5,185,185,435,,,,SBD,Raw,M,Masters 50-54,Yes
1,Don Townsend,MS,82.5,82.3,,74,-75,75,85,85,-62.5,62.5,-67.5,62.5,105,115,125,125,272.5,,,,SBD,Raw,M,Masters 70-74,Yes
1,Tim Edler,LA,100,98.7,,74,-92.5,95,97.5,97.5,85,-90,,85,102.5,115,120,120,302.5,,,,SBD,Raw,M,Masters 70-74,Yes
1,Henry Henington,MS,110,103.2,,80,87.5,97.5,-105,97.5,82.5,87.5,95,95,127.5,137.5,-142.5,137.5,330,,,,SBD,Raw,M,Masters 80+,Yes
DQ,Dylan Williams,MS,82.5,80.6,,19,-170,172.5,182.5,182.5,-112.5,-115,-115,,215,227.5,-237.5,227.5,,,,,SBD,Wraps,M,Juniors 18-19,Yes
1,David Schilling,LA,110,106.6,,64,110,120,125,125,110,115,120,120,125,137.5,142.5,142.5,387.5,,,,SBD,Wraps,M,Open,Yes
1,David Schilling,LA,110,106.6,,64,110,120,125,125,110,115,120,120,125,137.5,142.5,142.5,387.5,,,,SBD,Wraps,M,Masters 60-64,Yes
1,Andrew Parker,MS,90,89.4,,20,235,245,265,265,145,-152.5,152.5,152.5,205,217.5,222.5,222.5,640,,,,SBD,Single-ply,M,Juniors 20-23,Yes
1,Kevin Craft,MS,82.5,78.7,,24,165,-175,175,175,120,130,137.5,137.5,172.5,182.5,190,190,502.5,,,,SBD,Single-ply,M,Open,Yes
1,Cameron Cagle,MS,90,86.3,,19,185,192.5,197.5,197.5,115,130,-142.5,130,200,225,230,230,557.5,,,235,SBD,Multi-ply,M,Juniors 18-19,Yes
1,Carson Gipson,MS,60,57.8,,21,,,,,-85,90,-97.5,90,,,,,90,,,,B,Raw,M,Juniors 20-23,Yes
1,Miguel Larrea,LA,67.5,67.4,,35,,,,,115,122.5,130,130,,,,,130,,,,B,Raw,M,Open,Yes
1,Marcus Wilson,AL,100,97.9,,31,,,,,150,-155,-155,150,,,,,150,,,,B,Raw,M,Open,Yes
1,Miguel Larrea,LA,67.5,67.4,,35,,,,,115,122.5,130,130,,,,,130,,,,B,Raw,M,Submasters 35-39,Yes
1,John Sykes,MS,125,119.5,,57,,,,,150,160,165,165,,,,,165,,167.5,,B,Raw,M,Masters 55-59,Yes
1,Dora Lutz,MS,82.5,79.1,,74,,,,,,,,,92.5,102.5,105,105,105,,,107.5,D,Raw,F,Masters 70-74,Yes
1,Shiv Patel,LA,75,74.7,,23,,,,,,,,,215,-230,-230,215,215,,,,D,Raw,M,Juniors 20-23,Yes
1,Caleb Thomas,MS,82.5,82.4,,28,,,,,,,,,195,210,227.5,227.5,227.5,,,,D,Raw,M,Open,Yes
1,Marcus Wilson,AL,100,97.9,,31,,,,,,,,,220,-227.5,-227.5,220,220,,,,D,Raw,M,Open,Yes
1,Lincoln Bond,MS,82.5,82,,47,,,,,,,,,192.5,200,205,205,205,,,,D,Raw,M,Masters 45-49,Yes
1,Leif Rouser,FL,110,108.1,,26,,,,,,,,,275,297.5,-302.5,297.5,297.5,,,,D,Single-ply,M,Open,Yes
1,David Schilling,LA,110,106.6,,64,,,,,110,115,120,120,125,137.5,142.5,142.5,262.5,,,,BD,Raw,M,Open,Yes
1,Lincoln Bond,MS,82.5,82,,47,,,,,112.5,117.5,122.5,122.5,192.5,200,205,205,327.5,,,,BD,Raw,M,Masters 45-49,Yes
1,David Schilling,LA,110,106.6,,64,,,,,110,115,120,120,125,137.5,142.5,142.5,262.5,,,,BD,Raw,M,Masters 60-64,Yes
