﻿Ergebnisse "Sachsen Anhalt - Open" im Bankdrücken, 2. März 2008 / Arendsee
Klasse                                                                       Platzierung   Name                                            Körpergew.   1. Versuch   2. Versuch   3. Versuch   Gesamtpkt.
Frauen                                                                       1. Platz      Viola Heuthling                Genthin          66,0 kg      70,0 kg      75,0 kg      77,5 kg      128,96
Junioren                                                                     1. Platz      Kevin Banz                     Lüneburg         78,6 kg      140,0 kg     147,5 kg     152,5 kg     163,02
bis 23 Jahre                                                                 2. Platz      Mathias Wendt                  Hohen Wangelin   87,6 kg      155,0 kg     165,0 kg     170,0 kg     162,53
                                                                             3. Platz      Nando Stoll                    Rehna            91,0 kg      145,0 kg     152,5 kg     155,0 kg     148,96
                                                                             4. Platz      Ramadan Nuha                   Uelzen           63,6 kg      105,0 kg     112,5 kg     112,5 kg     148,16
                                                                             5. Platz      Andy Teitge                    Seehausen        104,4 kg     145,0 kg     155,0 kg     160,0 kg     143,84
                                                                             6. Platz      Chris Beyer                    Lüneburg         99,0 kg      142,5 kg     150,0 kg     155,0 kg     137,85
                                                                             7. Platz      Sebastian Angerhöfer           Seehausen        67,8 kg      100,0 kg     105,0 kg     105,0 kg     128,94
                                                                             8. Platz      Oliver Meske                   Fichtenwalde     93,6 kg      110,0 kg     115,0 kg     115,0 kg     108,56
Open                                                                         1. Platz      Stefan Fekken                  Parchim          115,0 kg     215,0 kg     222,5 kg     225,0 kg     196,43
bis 39 Jahre                                                                 2. Platz      Andre Hoff                     Seehausen        93,8 kg      180,0 kg     190,0 kg     200,0 kg     188,40
                                                                             3. Platz      Anton Brungardt                Uelzen           79,4 kg      125,0 kg     135,0 kg     140,0 kg     148,40
                                                                             4. Platz      Rene Lauterbach                Parchim          146,0 kg     165,0 kg     170,0 kg     172,5 kg     144,04
                                                                             5. Platz      Maik Müller                    Genthin          95,0 kg      130,0 kg     135,0 kg     140,0 kg     131,18
                                                                             6. Platz      Mathias Güldenpenning          Fichtenwalde     82,2 kg      120,0 kg     125,0 kg     127,5 kg     131,05
Masters I                                                                    1. Platz      Bernd Mielke / 49 J.           Gadebusch        108,5 kg     175,0 kg     185,0 kg     190,0 kg     191,20
ab 40 Jahre                                                                  2. Platz      Fredi Damaschke / 41 J.        Ziemendorf       120,0 kg     170,0 kg     180,0 kg     187,5 kg     162,81
                                                                             3. Platz      Fred Pommerenke / 45 J.        Anklam           83,4 kg      140,0 kg     142,5 kg     147,5 kg     153,90
                                                                             4. Platz      Marten Bonßdorf / 40 J.        Parchim          128,6 kg     160,0 kg     170,0 kg     180,0 kg     145,01
                                                                             5. Platz      Christoph Komorowski / 42 J.   Kiel             95,5 kg      145,0 kg     150,0 kg     150,0 kg     137,32
Masters II + III                                                             1. Platz      Manfred Grothe / 67 J.         Fichtenwalde     81,4 kg      130,0 kg     140,0 kg     142,5 kg     236,44
ab 50 Jahre                                                                  2. Platz      Bernhard Urlicki / 61 J.       Fichtenwalde     94,0 kg      145,0 kg     155,0 kg     160,0 kg     212,51
                                                                             3. Platz      Jürgen Teubner / 54 J.         Stendal          80,8 kg      150,0 kg     157,5 kg     162,5 kg     201,93
                                                                             4. Platz      Uwe Wulff / 51 J.              Hohen Wangelin   108,2 kg     135,0 kg     150,0 kg     155,0 kg     160,95
                                                                             5. Platz      Jörg Görtzen / 51 J.           Stendal          70,4 kg      105,0 kg     112,5 kg     117,5 kg     155,84
                                                                             6. Platz      Gerd Rickershenrich / 61 J.    Berlin           91,8 kg      95,0 kg      100,0 kg     102,5 kg     134,51
